…
| term             | log_OR |    OR | p.value |
|:-----------------|-------:|------:|--------:|
| (Intercept)      |  0.310 | 1.363 |   0.070 |
| victim_age       | -0.007 | 0.993 |   0.043 |
| victim_raceWhite |  0.842 | 2.320 |   0.000 |
| victim_sexMale   | -0.854 | 0.426 |   0.000 |

``` r
baltimore |>
  add_predictions(baltimore_glm) |>
  mutate(prob = boot::inv.logit(pred))
```

    ## # A tibble: 2,753 × 7
    ##    resolved victim_age victim_race victim_sex city_state       pred  prob
    ##       <dbl>      <dbl> <chr>       <chr>      <chr>           <dbl> <dbl>
    ##  1        0         17 Black       Male       Baltimore, MD -0.659  0.341
    ##  2        0         26 Black       Male       Baltimore, MD -0.719  0.328
    ##  3        0         21 Black       Male       Baltimore, MD -0.686  0.335
    ##  4        1         61 White       Male       Baltimore, MD -0.113  0.472
    ##  5        1         46 Black       Male       Baltimore, MD -0.854  0.299
    ##  6        1         27 Black       Male       Baltimore, MD -0.726  0.326
    ##  7        1         21 Black       Male       Baltimore, MD -0.686  0.335
    ##  8        1         16 Black       Male       Baltimore, MD -0.652  0.343
    ##  9        1         21 Black       Male       Baltimore, MD -0.686  0.335
    ## 10        1         44 Black       Female     Baltimore, MD  0.0140 0.503
    ## # ℹ 2,743 more rows
…
